C:\Users\Hp\Documents\BINAR\Challenge2\src\main\java\com\binar\service\Menu.java
C:\Users\Hp\Documents\BINAR\Challenge2\src\main\java\com\binar\service\IMainMenu.java
C:\Users\Hp\Documents\BINAR\Challenge2\src\main\java\com\binar\service\MeanMedMod.java
C:\Users\Hp\Documents\BINAR\Challenge2\src\main\java\com\binar\Main.java
